# Format:
# 	PVR,Version,JSON/file/pathname,Type
#
# where
# 	PVR	Processor version
# 	Version could be used to track version of of JSON file
# 		but currently unused.
# 	JSON/file/pathname is the path to JSON file, relative
# 		to tools/perf/pmu-events/arch/powerpc/.
# 	Type is core, uncore etc
#
# Multiple PVRs could map to a single JSON file.
#

# Power8 entries
0x004[bcd][[:xdigit:]]{4},1,power8,core
0x004e[[:xdigit:]]{4},1,power9,core
0x0080[[:xdigit:]]{4},1,power10,core
